a52dec 0.7.4-9
acl 2.2.52-4
acpi 1.7-2
acpid 2.0.29-2
adwaita-icon-theme 3.28.0-1
alsa-lib 1.1.6-1
alsa-plugins 1.1.6-2
alsa-utils 1.1.6-1
appstream-glib 0.7.7-2
archlinux-appstream-data 20180424-1
archlinux-keyring 20180404-1
argon2 20171227-3
at-spi2-atk 2.26.2-1
at-spi2-core 2.28.0-1
atk 2.28.1-1
atkmm 2.24.2+1+gf30b47f-2
attr 2.4.47-3
audacious 3.9-1
audacious-plugins 3.9-3
autoconf 2.69-4
automake 1.15.1-1
avahi 0.7+4+gd8d8c67-1
b43-fwcutter 019-2
bash 4.4.019-1
bc 1.07.1-1
binutils 2.30-5
bison 3.0.5-1
bluez-libs 5.50-2
boost-libs 1.67.0-4
btrfs-progs 4.16.1-2
bzip2 1.0.6-7
ca-certificates 20170307-1
ca-certificates-cacert 20140824-4
ca-certificates-mozilla 3.37.1-1
ca-certificates-utils 20170307-1
cairo 1.15.12-1
cairomm 1.12.2-2
calamares-tools r10.1d7b2b0-1
cantarell-fonts 1:0.101-1
chromaprint 1.4.3-2
chromium 67.0.3396.79-1
cifs-utils 6.7-2
clementine 1.3.1-17
clipit 1.4.3-2
colord 1.4.3-1
coreutils 8.29-1
cpupower 4.16-1
cracklib 2.9.6-1
crda 4.14-1
cronie 1.5.1-1
crypto++ 7.0.0-1
cryptsetup 2.0.3-1
curl 7.60.0-1
db 5.3.28-3
dbus 1.12.8-1
dbus-glib 0.110-1
dconf 0.28.0-1
desktop-file-utils 0.23+4+g92af410-1
device-mapper 2.02.177-5
dhclient 4.4.1-4
dhcpcd 7.0.4-1
diffutils 3.6-1
ding-libs 0.6.1-1
dmenu-manjaro 4.8-1
dmraid 1.0.0.rc16.3-10
dnsmasq 2.79-1
dnssec-anchors 20170711-1
dosfstools 4.1-1
double-conversion 3.0.0-1
e2fsprogs 1.44.2-1
ecryptfs-utils 111-2
efibootmgr 15-1
efivar 34-1
elfutils 0.171-1
exfat-utils 1.2.8-1
exo 0.12.0-1
expac 8-2
expat 2.2.5-1
f2fs-tools 1.10.0-1
faad2 2.8.8-1
fakeroot 1.22-1
falkon 3.0.1-2
ffmpeg 1:4.0-3
fftw 3.3.8-1
file 5.33-3
file-roller 3.28.0-1
filesystem 2018.1-3
findutils 4.6.0-2
flac 1.3.2-1
flex 2.6.4-1
fontconfig 2.13.0+10+g58f5285-1
freetype2 2.9.1-1
fribidi 1.0.2-1
fuse-common 3.2.3-1
fuse2 2.9.7-4
fzf 0.17.3-2
galculator 2.1.4-3
gamin 0.1.10-9
garcon 0.6.1-1
gawk 4.2.1-1
gc 7.6.4-1
gcab 1.0+2+gc0947f6-1
gcc 8.1.1+20180531-1
gcc-libs 8.1.1+20180531-1
gcr 3.28.0-3
gdbm 1.14.1-1
gdk-pixbuf2 2.36.12-1
geany 1.33.0-2
gettext 0.19.8.1-2
giblib 1.2.4-7
giflib 5.1.4-1
git 2.17.1-1
gksu-polkit 0.0.3-1
glew 2.1.0-1
glib-networking 2.56.1-1
glib2 2.56.1-1
glibc 2.27-3
glibmm 2.56.0-1
glu 9.0.0-5
gmp 6.1.2-1
gnome-icon-theme 3.12.0-4
gnome-icon-theme-symbolic 3.12.0-4
gnupg 2.2.7-1
gnutls 3.5.18-1
gobject-introspection-runtime 1.56.1-1
gpgme 1.11.1-1
gpicview 0.2.5-3
gpm 1.20.7-8
gptfdisk 1.0.3-1
graphite 1:1.3.11-1
grep 3.1-1
groff 1.22.3-7
grub 2.03.0-7.1
grub-theme-manjaro 17.1.1-3
gsettings-desktop-schemas 3.28.0+1+g85521dc-1
gsm 1.0.18-1
gssproxy 0.8.0-1
gst-plugins-base-libs 1.14.1-1
gstreamer 1.14.1-1
gtk-update-icon-cache 3.22.30-1
gtk2 2.24.32-1
gtk3 3.22.30-1
gtkmm 2.24.5-2
gtksourceview3 3.24.7-1
guile 2.2.3-1
gzip 1.9-1
harfbuzz 1.8.0-1
haveged 1.9.1-4
hdparm 9.56-1
hicolor-icon-theme 0.17-1
htop 2.2.0-2
hwids 20171003-1
hwinfo 21.53-1
iana-etc 20180221-1
icu 61.1-1
illyria-wallpaper 1.3.1-1
imlib2 1.5.1-1
inetutils 1.9.4-5
intel-ucode 20180425-1
iproute2 4.16.0-1
iptables 1.6.2-2
iputils 20161105.1f2bb12-2
ipw2100-fw 1.3-8
ipw2200-fw 3.1-6
iso-codes 3.76-1
iw 4.14-1
jack 0.125.0-3
jansson 2.10-3
jasper 2.0.14-1
jfsutils 1.1.15-5
js52 52.7.3-2
json-c 0.13-1
json-glib 1.4.2-2
kbd 2.0.4-1
keyutils 1.5.10-2
kmod 25-1
krb5 1.16.1-1
lame 3.100-1
lcms2 2.9-1
ldb 1.3.3-1
ldns 1.7.0-4
leafpad 0.8.18.1-7
less 530-1
libaio 0.3.111-1
libappindicator-gtk2 12.10.0-12
libarchive 3.3.2-2
libass 0.14.0-1
libassuan 2.5.1-1
libasyncns 0.8+3+g68cd5af-1
libatasmart 0.19-4
libatomic_ops 7.6.4-1
libavc1394 0.5.4-3
libblockdev 2.17-3
libbluray 1.0.2-1
libbsd 0.9.1-1
libburn 1.4.8-1
libbytesize 1.3-1
libcaca 0.99.beta19-1
libcanberra 0.30+2+gc0620e4-1
libcap 2.25-1
libcap-ng 0.7.9-1
libcddb 1.3.2-5
libcdio 2.0.0-1
libcdio-paranoia 10.2+0.94+2-2
libcroco 0.6.12+4+g9ad7287-1
libcups 2.2.7-2
libdaemon 0.14-4
libdatrie 0.2.10-2
libdbusmenu-glib 16.04.0-2
libdbusmenu-gtk2 16.04.0-2
libdca 0.0.5-5
libdmx 1.1.4-1
libdrm 2.4.92-1
libdvbpsi 1:1.3.2-1
libdvdnav 6.0.0-1
libdvdread 6.0.0-1
libebml 1.3.6-1
libechonest 2.3.1-1
libedit 20170329_3.1-1
libelf 0.171-1
libepoxy 1.5.2-1
libevdev 1.5.9-1
libevent 2.1.8-1
libexif 0.6.21-3
libffi 3.2.1-2
libfontenc 1.1.3-2
libgcrypt 1.8.2-1
libgee06 0.6.8-1
libglade 2.6.4-6
libglvnd 1.0.0-1
libgpg-error 1.31-1
libgpod 0.8.3-5
libgudev 232-1
libguess 1.2-2
libgusb 0.2.11-1
libibus 1.5.18-1
libice 1.0.9-2
libid3tag 0.15.1b-9
libidn 1.34-2
libidn2 2.0.5-1
libiec61883 1.2.0-5
libimobiledevice 1.2.0+66+g5a85432-1
libindicator-gtk2 12.10.1-7
libinput 1.11.0-1
libisoburn 1.4.8-2
libisofs 1.4.8-1
libjpeg-turbo 1.5.3-1
libkate 0.4.1-6
libkeybinder2 0.3.1-2
libkeybinder3 0.3.2-1
libksba 1.3.5-1
liblastfm-qt4 1.0.9-3
libldap 2.4.46-1
libmad 0.15.1b-8
libmatroska 1.4.9-1
libmm-glib 1.8.0-1
libmng 2.0.3-2
libmnl 1.0.4-1
libmodplug 0.8.9.0-1
libmpc 1.1.0-1
libmpcdec 1:0.1+r475-1
libmpeg2 0.5.1-6
libmtp 1.1.15-1
libndp 1.6-1
libnetfilter_conntrack 1.0.7-1
libnewt 0.52.20-1
libnfnetlink 1.0.1-3
libnftnl 1.1.0-1
libnghttp2 1.31.1-1
libnl 3.4.0-1
libnm 1.10.8-1
libnm-glib 1.10.8-1
libnotify 0.7.7-1
libnsl 1.2.0-1
libogg 1.3.3-2
libomxil-bellagio 0.9.3-2
libpcap 1.8.1-2
libpciaccess 0.14-1
libpgm 5.2.122-3
libpipeline 1.5.0-1
libplacebo 0.4.0-1
libplist 2.0.0+11+gec9ba8b-1
libpng 1.6.34-2
libproxy 0.4.15-6
libpsl 0.20.2-1
libpulse 11.1-1
libraw1394 2.1.2-1
librsvg 2:2.42.5-1
libsamplerate 0.1.9-1
libsasl 2.1.26-12
libseccomp 2.3.2-2
libsecret 0.18.6-1
libsigc++ 2.10.0-1
libsm 1.2.2-3
libsndfile 1.0.28-1
libsodium 1.0.16-1
libsoup 2.62.2-1
libsoxr 0.1.3-1
libssh 0.7.5-2
libssh2 1.8.0-2
libstemmer 0+337-2
libsystemd 238.133-1
libtar 1.2.20-4
libtasn1 4.13-1
libteam 1.27-1
libthai 0.1.27-1
libtheora 1.1.1-4
libtiff 4.0.9-1
libtiger 0.3.4-5
libtirpc 1.0.3-2
libtool 2.4.6+40+g6ca5e224-7
libunistring 0.9.10-1
libunwind 1.2.1-1
libupnp 1.6.25-1
libusb 1.0.22-1
libusbmuxd 1.0.10+13+gc724e70-1
libutempter 1.1.6-3
libutil-linux 2.32-3
libva 2.1.0-1
libvdpau 1.1.1+3+ga21bf7a-1
libvorbis 1.3.6-1
libvpx 1.7.0-1
libwacom 0.29-1
libwbclient 4.8.2-1
libwebp 1.0.0-1
libwnck 2.31.0-2
libwnck3 3.24.1-1
libx11 1.6.5-1
libx264 2:152.20171224-2
libx86emu 1.12-1
libxau 1.0.8-3
libxaw 1.0.13-2
libxcb 1.13-1
libxcomposite 0.4.4-3
libxcursor 1.1.15-1
libxdamage 1.1.4-3
libxdmcp 1.1.2-2
libxext 1.3.3-2
libxfce4ui 4.12.1-2
libxfce4util 4.12.1-2
libxfixes 5.0.3-2
libxfont2 2.0.3-1
libxft 2.3.2-2
libxi 1.7.9-1
libxinerama 1.1.3-3
libxkbcommon 0.8.0-1
libxkbcommon-x11 0.8.0-1
libxkbfile 1.0.9-2
libxklavier 5.4-2
libxml2 2.9.8-2
libxmu 1.1.2-2
libxpm 3.5.12-1
libxrandr 1.5.1-2
libxrender 0.9.10-1
libxres 1.2.0-1
libxshmfence 1.3-1
libxslt 1.1.32+3+g32c88216-1
libxss 1.2.2-3
libxt 1.1.5-2
libxtst 1.2.3-1
libxv 1.0.11-1
libxxf86dga 1.1.4-2
libxxf86vm 1.1.4-2
libyaml 0.1.7-1
licenses 20171006-1
lightdm 1:1.26.0-1
lightdm-gtk-greeter 1:2.0.5-1
linux-api-headers 4.16.1-1
linux-firmware 20180525.7518922-1
linux416 4.16.14-2
linux416-virtualbox-guest-modules 5.2.12-6
llvm-libs 6.0.0-4
lm_sensors 3.4.0-4
logrotate 3.14.0-1
lsb-release 1.4-12
lua 5.3.4-2
lua52 5.2.4-2
lvm2 2.02.177-5
lxterminal 0.3.1-2
lz4 1:1.8.2-2
lzo 2.10-1
m4 1.4.18-1
make 4.2.1-2
man-db 2.8.3-1
man-pages 4.16-1
manjaro-firmware 20160419-1
manjaro-iso-profiles-base 17.1.7-1
manjaro-iso-profiles-community 17.1.7-1
manjaro-iso-profiles-official 17.1.7-1
manjaro-keyring 20180607-1
manjaro-release 17.1.10-1
manjaro-system 20180513-1
manjaro-tools-base 0.15.7-7
manjaro-tools-iso 0.15.7-7
manjaro-tools-pkg 0.15.7-10
manjaro-tools-yaml 0.15.7-7
manjaro-wallpapers-18.0 1.3.1-1
mate-polkit 1.20.0-1
mc 4.8.21-1
mdadm 4.0-1
meld 3.19.0-1
memtest86+ 5.01-2
menumaker 0.99.10-1
mesa 18.1.1-1
mhwd 0.6.3-1
mhwd-amdgpu 1.2.1-1
mhwd-ati 7.7.0-1
mhwd-catalyst 1:15.201.1151-2
mhwd-db 0.6.3-1
mhwd-nvidia 1:396.24-1
mhwd-nvidia-304xx 1:304.137-1
mhwd-nvidia-340xx 340.106-1
mhwd-nvidia-390xx 390.59-1
minizip 1:1.2.11-2
mkinitcpio 24-2
mkinitcpio-busybox 1.28.4-1
mkinitcpio-openswap 0.1.0-2
mktorrent 1.1-2
mobile-broadband-provider-info 20170310-1
mpfr 4.0.1-1
mpv 1:0.28.2-2
mtdev 1.1.5-2
mutagen 1.40.0-1
namcap 3.2.7-2
nano 2.9.8-1
ncurses 6.1-3
ndctl 60.3-1
nettle 3.4-1
network-manager-applet 1.8.12-2
networkmanager 1.10.8-1
networkmanager-dmenu r80.eefd2c3-1
nfs-utils 2.3.1-1
nfsidmap 2.3.1-1
nilfs-utils 2.2.7-1
nitrogen 1.6.1-2
nm-connection-editor 1.8.12-2
noto-fonts 20180322-1
npth 1.5-1
nspr 4.19-1
nss 3.37.1-1
ntfs-3g 2017.3.23-1
obconf 2.0.4-5
obmenu 1.0-11
openbox 3.6.1-3
openbox-themes 1.0.2-4
openbox-themes-extra 1.0-4
opencore-amr 0.1.5-1
openjpeg2 2.3.0-1
openssh 7.7p1-1
openssl 1.1.0.h-1
openssl-1.0 1.0.2.o-1
opus 1.2.1-1
orc 0.4.28-1
os-prober 1.76-2
p11-kit 0.23.12-1
package-query 1.9-2
pacman 5.1.0-2
pacman-mirrors 4.10.1-3
pacui 1.10.2-1
pam 1.3.0-2
pamac 6.4.0-2
pambase 20171006-1
pango 1.42.1-1
pangomm 2.40.1-2
parted 3.2-6
patch 2.7.6-1
pciutils 3.5.6-1
pcmciautils 018-8
pcre 8.42-1
pcre2 10.31-1
perl 5.26.2-1
perl-error 0.17026-1
perl-mailtools 2.20-1
perl-timedate 2.30-4
perl-uri 1.74-1
pinentry 1.1.0-3
pixman 0.34.0-1
pkgconf 1.4.2-2
polkit 0.114-1.1
popt 1.16-9
procps-ng 3.3.15-1.1
protobuf 3.5.2-1
psmisc 23.1-1
pulseaudio 11.1-1
pulseaudio-alsa 2-4
pyalpm 0.8.3-1
pygobject-devel 3.28.3-1
pygobject2-devel 2.28.7-1
pygtk 2.24.0-8
python 3.6.5-3
python-cairo 1.17.0-1
python-dbus-common 1.2.6-1
python-docopt 0.6.2-4
python-gobject 3.28.3-1
python-keyutils 0.5-2
python-npyscreen 4.10.5-1
python-pyelftools 0.24-2
python-yaml 3.12-3
python2 2.7.15-1
python2-cairo 1.17.0-1
python2-dbus 1.2.6-1
python2-gobject 3.28.3-1
python2-gobject2 2.28.7-1
python2-psutil 5.4.6-1
qjson 0.9.0-1
qt4 4.8.7-24
qt5-base 5.11.0-1
qt5-declarative 5.11.0-1
qt5-location 5.11.0-1
qt5-svg 5.11.0-1
qt5-webchannel 5.11.0-1
qt5-webengine 5.11.0-2
qt5-x11extras 5.11.0-1
qt5-xmlpatterns 5.11.0-1
re2 20180401-1
readline 7.0.005-1
reiserfsprogs 3.6.27-1
rest 0.8.1-1
rpcbind 0.2.4-4
rsync 3.1.3-1
rtkit 0.11+8+ge0a51fe-1
rubberband 1.8.1-4
ruby 2.5.1-1
ruby-kwalify 0.7.2-2
rubygems 2.7.7-1
run-parts 4.8.6-1
s-nail 14.9.10-1
screenfetch 3.8.0.r107.g522c9c0-1
scrot 0.8.18-1
sdl2 2.0.8-8
sed 4.5-1
sg3_utils 1.42-1
shadow 4.5-4
shared-mime-info 1.9-1
slang 2.3.2-1
smbclient 4.8.2-1
snappy 1.1.7-1
sonar-iso-profiles 17.0-1
sound-theme-freedesktop 0.8-3
spectre-meltdown-checker 0.37-1
speex 1.2.0-1
speexdsp 1.2rc3-3
sqlite 3.24.0-1
squashfs-tools 4.3-5
startup-notification 0.12-5
sudo 1.8.23-2
sysfsutils 2.1.0-9
systemd 238.133-1
systemd-sysvcompat 238.133-1
taglib 1.11.1-1
talloc 2.1.13-1
tar 1.30-1
tdb 1.3.15-1
terminator 1.91-6
termite 13-3
termite-terminfo 13-3
tevent 1:0.9.36-1
texinfo 6.5-1
thin-provisioning-tools 0.7.6-1
thunar 1.6.15-1
tint2 16.4-1
tlp 1.1-1.0
tslib 1.16-1
ttf-dejavu 2.37-2
tzdata 2018e-1
uchardet 0.0.6-1
udiskie 1.7.5-1
udisks2 2.7.6-1.1
unzip 6.0-12
upower 0.99.7-1
usbmuxd 1.1.0+28+g46bdf3e-1
usbutils 009-1
util-linux 2.32-3
v4l-utils 1.14.2-1
v86d 0.1.10-5
vamp-plugin-sdk 2.7.1-2
vi 1:070224-3
vid.stab 1.1-2
vim 8.1.0022-1
vim-runtime 8.1.0022-1
virtualbox-guest-utils 5.2.12-2
vlc 3.0.2-2
volume_key 0.3.10-1
volumeicon 0.5.1-3
vte-common 0.52.2-1
vte3 0.52.2-1
vulkan-icd-loader 1.1.73.0-1
wayland 1.15.0-1
wayland-protocols 1.14-1
webrtc-audio-processing 0.3-2
wget 1.19.5-1
which 2.21-2
wireless-regdb 2017.03.07-1
wpa_supplicant 1:2.6-11
x265 2.8-1
xbitmaps 1.1.2-1
xcb-proto 1.13-1
xcb-util 0.4.0-2
xcb-util-image 0.4.0-2
xcb-util-keysyms 0.4.0-2
xcb-util-renderutil 0.3.9-2
xcb-util-wm 0.4.1-2
xdg-user-dirs 0.17-1
xdg-utils 1.1.3-1
xf86-input-libinput 0.27.1-1
xfce4-panel 4.12.2-1
xfce4-power-manager 1.6.1-1
xfce4-pulseaudio-plugin 0.4.1-1.2
xfconf 4.12.1-4
xfsprogs 4.16.1-1
xkeyboard-config 2.24-1
xorg-fonts-encodings 1.0.4-5
xorg-luit 1.1.1-3
xorg-mkfontdir 1.0.7-8
xorg-mkfontscale 1.1.3-1
xorg-server 1.19.6+24+g56547b196-1
xorg-server-common 1.19.6+24+g56547b196-1
xorg-setxkbmap 1.3.1-2
xorg-xauth 1.0.10-1
xorg-xdpyinfo 1.3.2-2
xorg-xkbcomp 1.4.2-1
xorg-xprop 1.2.3-1
xorg-xrandr 1.5.0-1
xorg-xset 1.2.4-1
xorgproto 2018.4-1
xterm 333-1
xvidcore 1.3.5-1
xz 5.2.4-1
yajl 2.1.0-2
yaourt 1.9-2
zd1211-firmware 1.5-1
zeromq 4.2.2-2
zip 3.0-8
zita-alsa-pcmi 0.2.0-4
zita-resampler 1.6.0-2
zlib 1:1.2.11-2
zsh 5.5.1-1
zstd 1.3.4-1
